<svg xmlns="http://www.w3.org/2000/svg" width="20.738" height="20.738" viewBox="0 0 20.738 20.738">
  <g id="Group_64" data-name="Group 64" transform="translate(-3.332 96.668)">
    <path id="Path_43" data-name="Path 43" d="M13.7-96.668A10.381,10.381,0,0,0,3.332-86.3a10.336,10.336,0,0,0,3.191,7.466c.006.006.008.015.014.02.06.057.125.106.186.162.166.152.332.3.509.442.094.076.192.144.288.215.166.124.332.247.505.361.118.077.24.146.359.219.16.1.319.194.485.281.139.074.283.138.425.2s.309.149.468.214.32.119.481.176.3.112.457.159c.174.053.354.094.532.137.148.036.292.078.442.108.2.041.411.067.619.095.128.017.253.043.382.056a10.079,10.079,0,0,0,1.027.054c.345,0,.687-.018,1.027-.052.128-.013.255-.038.382-.056.207-.028.415-.054.619-.095.149-.03.294-.071.442-.108.178-.043.357-.083.532-.137.154-.047.3-.1.457-.159s.323-.111.481-.176.312-.141.468-.214.286-.131.425-.2c.166-.088.325-.185.485-.281.12-.073.242-.141.359-.219.174-.114.339-.238.505-.361.1-.072.194-.14.288-.215.175-.141.342-.291.509-.442.061-.056.127-.1.186-.162.006-.006.008-.014.014-.02A10.343,10.343,0,0,0,24.07-86.3,10.381,10.381,0,0,0,13.7-96.668ZM15.153-86.7a.057.057,0,0,1-.013,0,3.078,3.078,0,0,1-.619.262c-.038.011-.076.026-.115.036-.076.02-.152.033-.228.046a2.884,2.884,0,0,1-.436.043H13.66a3.129,3.129,0,0,1-.436-.043c-.076-.013-.153-.026-.228-.046-.039-.01-.076-.024-.115-.036a3.057,3.057,0,0,1-.619-.262.057.057,0,0,0-.013,0,2.95,2.95,0,0,1-1.51-2.566A2.966,2.966,0,0,1,13.7-92.223a2.966,2.966,0,0,1,2.962,2.962,2.95,2.95,0,0,1-1.51,2.566Zm-3.338,1.452a4.415,4.415,0,0,0,1.886.426,4.4,4.4,0,0,0,1.886-.426,5.942,5.942,0,0,1,4.038,5.552c-.031.028-.061.056-.092.083-.135.119-.274.231-.416.34-.083.063-.166.127-.251.187q-.2.144-.409.277c-.1.064-.2.127-.307.187-.13.076-.263.149-.4.219s-.24.119-.361.174-.256.116-.386.169-.27.1-.407.149-.25.088-.378.125c-.149.044-.3.081-.457.118-.12.029-.239.06-.36.083-.175.034-.355.058-.535.082-.1.013-.2.033-.307.043-.283.027-.571.043-.862.043s-.579-.016-.864-.043c-.1-.01-.2-.029-.307-.043-.18-.023-.358-.048-.535-.082-.122-.023-.24-.056-.36-.083-.154-.036-.306-.073-.457-.118-.128-.038-.252-.082-.378-.125s-.273-.1-.407-.149-.259-.11-.386-.169-.242-.113-.361-.174-.266-.142-.4-.219c-.1-.06-.207-.122-.307-.187-.138-.089-.274-.181-.408-.278-.085-.061-.168-.124-.251-.187q-.212-.163-.416-.34l-.092-.083a5.942,5.942,0,0,1,4.039-5.551Zm9.124,4.083a7.445,7.445,0,0,0-3.967-5.105,4.418,4.418,0,0,0,1.172-3A4.448,4.448,0,0,0,13.7-93.7a4.448,4.448,0,0,0-4.444,4.444,4.423,4.423,0,0,0,1.17,3,7.446,7.446,0,0,0-3.967,5.105A8.839,8.839,0,0,1,4.813-86.3,8.9,8.9,0,0,1,13.7-95.186,8.9,8.9,0,0,1,22.589-86.3a8.828,8.828,0,0,1-1.649,5.138Z" transform="translate(0 0)" fill="#383838"/>
  </g>
</svg>
